Bayesian VARs
…
  q <- as.yearqtr(df$date)

  y0 <- as.integer(floor(as.numeric(q[1])))
  qtr0 <- as.integer(round((as.numeric(q[1]) - y0) * 4 + 1))

  ts_out <- ts(as.matrix(df[, cols]), start = c(y0, qtr0), frequency = 4)
  colnames(ts_out) <- cols
  ts_out
}

df_var

## # A tibble: 100 × 4
##    date       lRGDP  lDEF    FF
##    <date>     <dbl> <dbl> <dbl>
##  1 1995-03-31  37.3  16.8  5.81
##  2 1995-06-30  37.3  16.8  6.02
##  3 1995-09-30  37.4  16.8  5.80
##  4 1995-12-31  37.4  16.8  5.72
##  5 1996-03-31  37.4  16.9  5.36
##  6 1996-06-30  37.5  16.9  5.24
##  7 1996-09-30  37.5  16.9  5.31
##  8 1996-12-31  37.6  16.9  5.28
##  9 1997-03-31  37.6  16.9  5.28
## 10 1997-06-30  37.7  16.9  5.52
## # ℹ 90 more rows
…
alpha_Mn_post <- V_Mn_post %*% (solve(V_Mn) %*% alpha_Mn + kronecker(solve(Omega_Mn), t(X)) %*% y)

で与えられる。

Minnesota prior は、OLS
推定量を事前平均の方向へ縮小する役割を果たし、
特に高次ラグおよび他変数のラグに対して強い縮小を課すことで、高次元 VAR
における過剰パラメータ化を防ぐ。

print("推計結果（OLS v.s. Minnesota Prior")
tibble(OLS = as.vector(alpha_OLS), `Minn. Prior` = as.vector(alpha_Mn), Posterior = as.vector(alpha_Mn_post)) %>% round(2)

## [1] "推計結果（OLS v.s. Minnesota Prior"
## # A tibble: 48 × 3
##      OLS `Minn. Prior` Posterior
##    <dbl>         <dbl>     <dbl>
##  1  0.75             0      0   
##  2  1.12             1      1.15
##  3 -0.57             0     -0.64
##  4  0                0      0   
##  5  0.01             0      0   
##  6  0.32             0      0.3 
##  7  0.01             0      0.01
##  8 -0.18             0     -0.16
##  9  0.22             0      0.23
## 10  0                0      0   
## # ℹ 38 more rows
…
